total 3356
-rw-r--r-- 1 cserpell cserpell   24064 2018-08-11 16:18:05.428529473 -0400 borlndmm.dll
-rw-r--r-- 1 cserpell cserpell  908800 2018-08-11 16:18:03.096682386 -0400 cp3245mt.dll
-rw-r--r-- 1 cserpell cserpell       0 2018-08-11 16:52:27.385927665 -0400 dates.txt
-rw-r--r-- 1 cserpell cserpell  304182 2002-10-06 18:27:16.000000000 -0400 Dibujo.bmp
-rw-r--r-- 1 cserpell cserpell   71009 2002-11-02 18:49:36.000000000 -0300 Dibujo.jpg
-rw-r--r-- 1 cserpell cserpell     310 2002-11-01 23:46:50.000000000 -0300 in.txt
-rw-r--r-- 1 cserpell cserpell    9071 2002-11-13 01:00:24.000000000 -0300 main.cpp
-rw-r--r-- 1 cserpell cserpell    1254 2002-11-13 00:48:06.000000000 -0300 main.dfm
-rw-r--r-- 1 cserpell cserpell    1790 2002-11-13 01:00:08.000000000 -0300 main.h
-rw-r--r-- 1 cserpell cserpell  131650 2002-11-13 01:00:40.000000000 -0300 main.obj
-rw-r--r-- 1 cserpell cserpell 1888232 2018-08-11 16:18:00.092880097 -0400 vcl40.bpl
-rw-r--r-- 1 cserpell cserpell    4693 2002-10-06 02:28:56.000000000 -0400 Vision.bpr
-rw-r--r-- 1 cserpell cserpell     705 2002-10-06 02:28:54.000000000 -0400 Vision.cpp
-rw-r--r-- 1 cserpell cserpell    5292 2002-12-14 16:47:58.000000000 -0300 Vision.dsk
-rwxr-xr-x 1 cserpell cserpell   34304 2002-11-13 01:00:42.000000000 -0300 Vision.exe
-rw-r--r-- 1 cserpell cserpell   12044 2002-10-06 18:38:58.000000000 -0400 Vision.obj
-rw-r--r-- 1 cserpell cserpell     876 2002-10-06 02:28:32.000000000 -0400 Vision.res
