total 60
-rw-r--r-- 1 cserpell cserpell  0 2018-08-11 16:52:27.153921852 -0400 dates.txt
-rw-r--r-- 1 cserpell cserpell  6 2009-01-20 22:39:42.000000000 -0300 file1
-rw-r--r-- 1 cserpell cserpell 12 2009-01-20 22:39:42.000000000 -0300 file10
-rw-r--r-- 1 cserpell cserpell 11 2009-01-20 22:39:42.000000000 -0300 file11
-rw-r--r-- 1 cserpell cserpell  9 2009-01-20 22:39:42.000000000 -0300 file12
-rw-r--r-- 1 cserpell cserpell 10 2009-01-20 22:39:42.000000000 -0300 file13
-rw-r--r-- 1 cserpell cserpell  9 2009-01-20 22:39:42.000000000 -0300 file14
-rw-r--r-- 1 cserpell cserpell  8 2009-01-20 22:39:42.000000000 -0300 file15
-rw-r--r-- 1 cserpell cserpell  8 2009-01-20 22:39:42.000000000 -0300 file2
-rw-r--r-- 1 cserpell cserpell 10 2009-01-20 22:39:42.000000000 -0300 file3
-rw-r--r-- 1 cserpell cserpell  7 2009-01-20 22:39:42.000000000 -0300 file4
-rw-r--r-- 1 cserpell cserpell  8 2009-01-20 22:39:42.000000000 -0300 file5
-rw-r--r-- 1 cserpell cserpell  6 2009-01-20 22:39:42.000000000 -0300 file6
-rw-r--r-- 1 cserpell cserpell  6 2009-01-20 22:39:42.000000000 -0300 file7
-rw-r--r-- 1 cserpell cserpell  7 2009-01-20 22:39:42.000000000 -0300 file8
-rw-r--r-- 1 cserpell cserpell  6 2009-01-20 22:39:42.000000000 -0300 file9
