total 3048
-rw-r--r-- 1 cserpell cserpell   24064 2018-08-10 18:57:23.962806614 -0400 borlndmm.dll
-rw-r--r-- 1 cserpell cserpell  908800 2018-08-10 18:57:20.643253761 -0400 cp3245mt.dll
-rw-r--r-- 1 cserpell cserpell       0 2018-08-11 16:52:27.337926462 -0400 dates.txt
drwxr-xr-x 2 cserpell cserpell    4096 2018-08-10 18:58:38.725300579 -0400 dos
-rw-rw-rw- 1 cserpell cserpell    4649 2001-12-13 18:07:26.000000000 -0300 Include.bpr
-rw-rw-rw- 1 cserpell cserpell     706 2001-12-14 02:00:38.000000000 -0300 Include.cpp
-rw-rw-rw- 1 cserpell cserpell    3323 2001-12-18 18:25:14.000000000 -0300 Include.dsk
-rwxr-xr-x 1 cserpell cserpell   53248 2001-12-14 17:54:56.000000000 -0300 Include.exe
-rw-rw-rw- 1 cserpell cserpell   12053 2001-12-14 02:00:46.000000000 -0300 Include.obj
-rw-rw-rw- 1 cserpell cserpell     876 2001-12-13 15:57:42.000000000 -0300 Include.res
-rw-rw-rw- 1 cserpell cserpell    7253 2001-12-14 17:10:08.000000000 -0300 main.cpp
-rw-rw-rw- 1 cserpell cserpell    1418 2001-12-14 16:42:42.000000000 -0300 main.dfm
-rw-rw-rw- 1 cserpell cserpell    1646 2001-12-14 16:40:54.000000000 -0300 main.h
-rw-rw-rw- 1 cserpell cserpell  180046 2001-12-14 16:54:54.000000000 -0300 main.obj
-rw-r--r-- 1 cserpell cserpell     243 2001-12-14 02:08:44.000000000 -0300 origen.dat
-rw-rw-rw- 1 cserpell cserpell    1001 2001-12-13 18:02:16.000000000 -0300 res.cpp
-rw-rw-rw- 1 cserpell cserpell     393 2001-12-13 12:28:20.000000000 -0300 res.h
-rw-r--r-- 1 cserpell cserpell 1888232 2018-08-10 18:57:16.963751978 -0400 vcl40.bpl
