total 2872
-rw-r--r-- 1 cserpell cserpell   24064 2018-08-11 16:09:25.476044487 -0400 borlndmm.dll
-rw-r--r-- 1 cserpell cserpell  908800 2018-08-11 16:09:25.480044395 -0400 cp3245mt.dll
-rw-r--r-- 1 cserpell cserpell       0 2018-08-11 16:52:27.317925961 -0400 dates.txt
-rw-r--r-- 1 cserpell cserpell    1656 2002-05-24 18:06:36.000000000 -0400 main.cpp
-rw-r--r-- 1 cserpell cserpell     866 2002-05-24 18:04:18.000000000 -0400 main.dfm
-rw-r--r-- 1 cserpell cserpell    1115 2002-05-24 18:04:18.000000000 -0400 main.h
-rw-r--r-- 1 cserpell cserpell   40057 2002-05-24 18:07:04.000000000 -0400 main.obj
-rw-r--r-- 1 cserpell cserpell    4635 2002-05-23 23:39:32.000000000 -0400 PruNum.bpr
-rw-r--r-- 1 cserpell cserpell     705 2002-05-23 23:39:32.000000000 -0400 PruNum.cpp
-rw-r--r-- 1 cserpell cserpell    5341 2002-05-24 23:13:38.000000000 -0400 PruNum.dsk
-rwxr-xr-x 1 cserpell cserpell   25088 2002-05-24 18:07:04.000000000 -0400 PruNum.exe
-rw-r--r-- 1 cserpell cserpell   12044 2002-05-24 00:06:32.000000000 -0400 PruNum.obj
-rw-r--r-- 1 cserpell cserpell     876 2002-05-23 23:36:50.000000000 -0400 PruNum.res
-rw-r--r-- 1 cserpell cserpell 1888232 2018-08-11 16:09:28.755969459 -0400 vcl40.bpl
