total 340
-rw-r--r-- 1 cserpell cserpell     23 2009-01-20 22:29:00.000000000 -0300 accept
-rw-r--r-- 1 cserpell cserpell     89 2009-01-20 22:39:42.000000000 -0300 copback.sh
-rw-r--r-- 1 cserpell cserpell   3388 2009-01-20 22:39:42.000000000 -0300 crawler.php
-rw-r--r-- 1 cserpell cserpell      0 2018-08-11 16:52:27.153921852 -0400 dates.txt
-rw-r--r-- 1 cserpell cserpell    445 2009-01-20 23:29:52.000000000 -0300 fil_key.pl
drwxr-xr-x 2 cserpell cserpell   4096 2009-01-20 22:39:42.000000000 -0300 firstdir
-rw-r--r-- 1 cserpell cserpell    212 2009-01-20 22:39:42.000000000 -0300 get_all.sh
-rw-r--r-- 1 cserpell cserpell  73545 2009-01-20 22:39:42.000000000 -0300 ind1.html
-rw-r--r-- 1 cserpell cserpell 133038 2009-01-20 22:39:42.000000000 -0300 ind2.html
-rw-r--r-- 1 cserpell cserpell  54019 2009-01-20 22:39:42.000000000 -0300 index.html
-rw-r--r-- 1 cserpell cserpell    123 2009-01-20 22:39:42.000000000 -0300 inlist.txt
-rw-r--r-- 1 cserpell cserpell    723 2009-01-20 22:50:16.000000000 -0300 linkedwords.php
-rw-r--r-- 1 cserpell cserpell    448 2009-01-20 23:26:58.000000000 -0300 parear.pl
-rw-r--r-- 1 cserpell cserpell   3526 2009-01-20 22:50:16.000000000 -0300 plhtml.pl
-rw-r--r-- 1 cserpell cserpell  32871 2009-01-20 22:50:16.000000000 -0300 simple_html_dom.php
drwxr-xr-x 2 cserpell cserpell   4096 2009-01-20 22:50:16.000000000 -0300 tempdir
