total 40
drwxr-xr-x 3 cserpell cserpell 4096 2005-09-11 17:54:56.000000000 -0400 bin
-rw-r--r-- 1 cserpell cserpell 1563 2004-07-21 00:01:20.000000000 -0400 Complejo.cs
-rw-r--r-- 1 cserpell cserpell  552 2004-07-20 23:58:12.000000000 -0400 cuant.cmbx
-rw-r--r-- 1 cserpell cserpell 2402 2004-07-20 23:58:12.000000000 -0400 cuant.prjx
-rw-r--r-- 1 cserpell cserpell    0 2018-08-11 16:52:27.329926262 -0400 dates.txt
-rw-r--r-- 1 cserpell cserpell  572 2004-07-21 00:01:20.000000000 -0400 EditorMatriz.cs
-rw-r--r-- 1 cserpell cserpell 1919 2004-07-21 00:01:20.000000000 -0400 Estado.cs
-rw-r--r-- 1 cserpell cserpell  803 2004-07-19 21:32:30.000000000 -0400 Manejador.cs
-rw-r--r-- 1 cserpell cserpell 2357 2004-07-21 00:01:20.000000000 -0400 Operador.cs
-rw-r--r-- 1 cserpell cserpell 4318 2004-07-21 00:01:20.000000000 -0400 Principal.cs
