total 56
-r--r--r-- 1 cserpell cserpell  2048 2007-12-26 00:23:46.000000000 -0300 5200.rom
-rw-r--r-- 1 cserpell cserpell  8192 1994-11-10 11:58:16.000000000 -0300 ataribas.rom
-rw-r--r-- 1 cserpell cserpell 10240 1999-06-21 16:03:00.000000000 -0400 atariosa.rom
-rw-r--r-- 1 cserpell cserpell 10240 1994-11-10 11:58:16.000000000 -0300 atariosb.rom
-rw-r--r-- 1 cserpell cserpell 16384 1994-11-10 11:58:16.000000000 -0300 atarixl.rom
-rw-r--r-- 1 cserpell cserpell     0 2018-08-11 16:52:27.145921652 -0400 dates.txt
-rw-r--r-- 1 cserpell cserpell   614 2010-04-18 22:31:06.000000000 -0400 fract.xex
