total 8
-rw-r--r-- 1 cserpell cserpell   0 2018-08-11 16:52:27.345926663 -0400 dates.txt
-rw-r--r-- 1 cserpell cserpell 876 2009-12-28 23:37:24.000000000 -0300 genall.cpp
-rw-r--r-- 1 cserpell cserpell 128 2009-12-28 23:31:34.000000000 -0300 test1.sh
