total 12
-rw-r--r-- 1 cserpell cserpell   0 2018-08-11 16:52:27.169922253 -0400 dates.txt
-rw-r--r-- 1 cserpell cserpell 605 2008-06-02 14:47:22.000000000 -0400 ExampleVo1.java
-rw-r--r-- 1 cserpell cserpell 401 2008-05-27 14:15:40.000000000 -0400 ExampleVo2.java
-rw-r--r-- 1 cserpell cserpell 571 2008-05-27 14:15:40.000000000 -0400 ExampleVo3.java
